…
── Fit Data (object fit is a modified tibble): ──
# A tibble: 129 × 28
  ID     TIME    DV  PRED      RES     WRES IPRED     IRES    IWRES CPRED     CRES    CWRES eta.CL_EMAX A_dep
  <fct> <dbl> <dbl> <dbl>    <dbl>    <dbl> <dbl>    <dbl>    <dbl> <dbl>    <dbl>    <dbl>       <dbl> <dbl>
1 1         0    17  17   7.11e-15 7.43e-16  17   7.11e-15 7.43e-16  17   7.11e-15 7.43e-16    -0.00195  26  
2 1       168    21  18.0 3.00e+ 0 3.14e- 1  18.0 3.00e+ 0 3.14e- 1  18.0 3.00e+ 0 3.14e- 1    -0.00195  26.3
3 1       336    36  19.4 1.66e+ 1 1.73e+ 0  19.4 1.66e+ 1 1.73e+ 0  19.4 1.66e+ 1 1.73e+ 0    -0.00195  26.3
# … with 126 more rows, and 14 more variables: A_ven <dbl>, A_l <dbl>, A_rb <dbl>, A_art <dbl>, A_col <dbl>,
#   A25_ven <dbl>, A25_l <dbl>, A25_rb <dbl>, A25_art <dbl>, A25_col <dbl>, CL_EMAX <dbl>, tad <dbl>,
#   dosenum <dbl>, D25BASE <dbl>
# ℹ Use `print(n = ...)` to see more rows, and `colnames()` to see all variable names
