…
  Covariance Type (fit.s$covMethod): linFim
  No correlations in between subject variability (BSV) matrix
  Full BSV covariance (fit.s$omega) or correlation (fit.s$omegaR; diagonals=SDs) 
  Distribution stats (mean/skewness/kurtosis/p-value) available in fit.s$shrink 
  Information about run found (fit.s$runInfo):
   • IDs without observations dropped: 76 
  Censoring (fit.s$censInformation): No censoring

── Fit Data (object fit.s is a modified tibble): ──
# A tibble: 294 × 30
  ID     TIME    DV  PRED      RES     WRES IPRED      IRES     IWRES CPRED      CRES     CWRES eta.K…¹ eta.C…²
  <fct> <dbl> <dbl> <dbl>    <dbl>    <dbl> <dbl>     <dbl>     <dbl> <dbl>     <dbl>     <dbl>   <dbl>   <dbl>
1 1         0    17  17   7.11e-15 7.27e-15  17    7.11e-15  7.27e-15  17    7.11e-15  7.27e-15   -3.91  -0.211
2 1       168    21  19.6 1.44e+ 0 6.74e- 1  22.4 -1.42e+ 0 -1.11e+ 0  21.9 -9.37e- 1 -7.22e- 1   -3.91  -0.211
3 1       336    36  23.2 1.28e+ 1 2.76e+ 0  30.2  5.80e+ 0  3.34e+ 0  29.0  6.98e+ 0  3.92e+ 0   -3.91  -0.211
# … with 291 more rows, 16 more variables: A_dep <dbl>, A_ven <dbl>, A_l <dbl>, A_rb <dbl>, A_art <dbl>,
#   A_col <dbl>, A25_ven <dbl>, A25_l <dbl>, A25_rb <dbl>, A25_art <dbl>, A25_col <dbl>, Kp25rb <dbl>,
#   CL_EMAX <dbl>, tad <dbl>, dosenum <dbl>, D25BASE <dbl>, and abbreviated variable names ¹​eta.Kp25rb,
#   ²​eta.CL_EMAX
# ℹ Use `print(n = ...)` to see more rows, and `colnames()` to see all variable names
